<svg id="method_2" xmlns="http://www.w3.org/2000/svg" width="838" height="344" viewBox="0 0 838 344">
  <defs>
    <style>
      .cls-1, .cls-2 {
        fill-rule: evenodd;
      }

      .cls-2, .cls-3 {
        fill: #b00212;
      }
    </style>
  </defs>
  <path id="Фигура_3" data-name="Фигура 3" class="cls-1" d="M649.868,141.255h-28.99c-1.083,14.605-8.14,25.385-12.608,24.539h-6.431c-6.008-1.134-8.952-11.669-8.546-26.164l-22.111-.178a1.952,1.952,0,0,1-.635,1.227c-0.126,5.179-.245,10.357-4.408,12.693a46.156,46.156,0,0,1-12.464.719,11.33,11.33,0,0,1-5.247.432l-1.793,1.227c-0.923,6.769-2.454,13.081-5.247,18.209-0.507,5.077-.939,10.061-0.389,14.2,0.685,1.887-.525,3.444.643,5.077l0.6,0.44,0.931,5.255,7.429,46.413,1.633,13.082c-0.144.846-1.354,1.379-3.131,1.692l-1.692,1.582,0.981,5.39a42.269,42.269,0,0,1,3.157,17.711l-0.635,28.1a6.025,6.025,0,0,1,2.226,5.34l0.846,0.77,0.55,1.9,2.741,3.545a1.007,1.007,0,0,1-.1,1.092,5.916,5.916,0,0,0,2.251,2.225c1.531,0.491,2.174,1.693,1.929,3.63a74.024,74.024,0,0,1-14.817.466c-4.493.127-7.818,0-6.9-1.05l0.406-1.167-0.229-.846,0.144-.229V324.35c0.4-2.826.846-5.365,1.929-5.923l-0.152-.736,0.669-.973A138.583,138.583,0,0,0,537.42,291.6a85.571,85.571,0,0,1-2.26-20.181,51.678,51.678,0,0,0-4.078-10.1l-1.87-1.464c0-2.809-1.794-7.133-5.653-13.31-1.007-3.994.33-8.843-1.464-10.865l-1.4,5.542c-2.538,3.385-3.384,7.413-3.833,11.576l-1.024,8.7a31.774,31.774,0,0,1-8.817,2.86c-2.386,4.721-4.011,9.519-3.791,14.52-0.178,8.462-6,22.779-5.5,34.152l1.159,2.928-0.161,1.616,0.627,0.118a12.674,12.674,0,0,0,.77,4.231l0.473,2.539a3.67,3.67,0,0,1-.9,2.344,6.023,6.023,0,0,1,.609,5.077,83.251,83.251,0,0,1-14.131-.11c-0.99-1.752-1.692-3.529.195-5.619,0.237-2.809.474-5.61,2.056-7.895,0-1.5-.432-2.987,1.227-4.493-2.217-21.476-2.86-40.616,2.742-51.033a3.774,3.774,0,0,1-1.634-2.022l3.512-32.155a187.608,187.608,0,0,0,2.784-20.486,4.638,4.638,0,0,1,2.539-4.409l2.86-7.759c-0.5-1.6.084-2.445,1.514-2.716a6.586,6.586,0,0,0,.195-3.343,42.783,42.783,0,0,0-1.193-15.095c-2.183-4.84-3.241-12.228-4.045-20.207-1.532-1.024-2.809-2.818-3.588-6.076-2.538-1.125-4.628-3.74-5.576-9.477l-4.112.1c-0.677,1.5-1.431,2.8-2.725,2.318a2.536,2.536,0,0,1-2.226,0c-1.091.508-2.124,0.923-2.4,0.2-1.261.787-2.251,0.745-2.758-.787-0.94-.076-1.82-0.245-1.938-1.692l-31.52.1a6.587,6.587,0,0,1-.432,3.037h-3.384l-1.2,22.61-0.609,1.193-6.947.093-0.745-.939c0-7.548.051-15.138,0.3-22.931a3.553,3.553,0,0,1-6.355-1.735H385.878a10.931,10.931,0,0,1,.169-6.431h36.868c0-.668.152-1.269,0.685-1.32l1.693,0.085c0.161-.745,2.9-0.8,3.038,0h0.913l1.075-23.642,0.694-.694,6.769-.1,0.847,0.922c0.3,7.718.253,15.392,0,23.033h3.384a14.239,14.239,0,0,1,.313,3.081l33.847-.085c2.167-4.29,4.367-8.132,6.948-7.4a18.2,18.2,0,0,1,7.92.728c4.011,0.084,8.792,2.657,14.063,6.769l8.792-.051a19.1,19.1,0,0,0,0-9.68c-1.921-.389-3.723-0.922-2.632-5.314a1.481,1.481,0,0,1,1.693-1.049c-1.388-4.231-1.176-8.081,1.785-11.322l-1.227.406a12.7,12.7,0,0,0,3.715-3.292c2.6-3.435,5.221-3.613,7.852-2.614,3.191-1.566,4.671.643,5.543,4.231,3.757,3.782,4.3,7.987,2.132,12.515l-0.313,2.013c1.9-.211.584,5.027-0.914,5.831a10.72,10.72,0,0,1-1.692,4.188,14.029,14.029,0,0,0,.584,4.036l27.678,0.424c-0.338-1.2-.389-2.319.6-3.174,1.049-2.318,2.539-3.384,4.51-3.037,3.385-1.16,6.414-.99,7.506,6.27l23.016,0.279c2.386-17.668,6.541-24.624,11.669-25.825l7.387,0.042c5.153,1.98,8.275,9.494,8.521,24.768l29.15,0.3C652.153,136.719,651.188,142.473,649.868,141.255ZM373.312,206c-0.761,8.3-2.014,10.493-3.385,11.2l1.16,4.874,1.387,1.388,22.991,0.677a2.185,2.185,0,0,1-.347-2.539l0.305-1.472c1.2-1.9,2.488-2.344,3.808-1.947a4.029,4.029,0,0,1,3.85-1c3.469,1.125,4.848,3.918,5.407,7.362l20.6,0.964c1.946-18.912,10.391-24.725,14.961-24.869l7.412,0.491c6.846,2.031,12.05,11.982,12.177,24.277l20.646,0.846c2.175,0.186,2.683,4.806,0,5.458l-20.976-.626c-1.388,14.977-7.692,23.058-14.741,23.481l-8.394-.432c-8.724-3.435-11-15.281-11.144-25.326l-19.369-.668c-0.525,1.32-1.092,1.481-1.692,1.032l-0.39.2a23.76,23.76,0,0,1,2.336,11.6c0.3,4.976-2.429,6.77-6.321,7.311-8.766,1.9-14.284.077-16.788-5.195l-1.126,1.861c-1.311,6.44-2.919,11.991-5.39,15.045a4.66,4.66,0,0,1-1.32,2.057,12.7,12.7,0,0,1-.651,4.544,38.136,38.136,0,0,0-1.388,12.075,2.913,2.913,0,0,1-.3,2.335l4.713-1.642c3-2.682,5.923-5.838,9.308-6.447a6.546,6.546,0,0,1,4.628-2.251l4.324-1.134a21.819,21.819,0,0,1,8.589-2.006c7.827,1.591,13.539,9.833,9.96,18.3a56.13,56.13,0,0,1-3.14,7.252c-7.04,7.378-13.64,14.757-17.346,22.135,0.964,1.27.406,2.539,0.084,3.808l0.17,0.305v0.9l5.974,6.144c0.634,0.9,2.056,1.336,3.553,1.692,1.642-.195,2.539.711,2.6,2.9l0.474,0.127L410.4,332.22a105.305,105.305,0,0,1-28.829-.694l-0.178-2.64,0.093-.254c-0.541-1.777-.093-4.527.559-7.489,0.211-1.861.973-2.826,2.538-2.538v-0.474l0.779-.914c1.43-5.128,4.231-11.237,6.769-17.144l-0.736.093c-8.707,7.261-17.77,10.358-27.179,9.994a56.8,56.8,0,0,0-8.36-.305c-8.521,1.836-14.605.186-19.344-3.385a56.816,56.816,0,0,0,.389,7.921l0.347,1.692,0.846,0.567-0.169,1.515,0.516,0.389a10.645,10.645,0,0,1,.474,5.8l-1.379,4.1a8.316,8.316,0,0,1,.846,3.943,10.575,10.575,0,0,1-3.571.618l-12.193-.5c-1.938-3.046.169-5.517,1.887-8.039,0.719-2.961,1.455-5.923,3-6.092-0.964-1.921-.651-2.928.44-3.385l-5.153-16.238c-3.114-7.861-4.121-14.385-2.268-19.225l2.987-9.257c2.183-4.324,4.671-6.541,7.616-5.763,3.258-1.328,6.566-1.108,9.976,2.276l-0.778-5.652a25.071,25.071,0,0,1-1.938-10.8c-0.736-3.766-1.125-7.345-.5-10.358-2.353-2.3-2.539-6.346-1.887-11l-1.693-2.995-3.664-.11c-1.5,1.861-2.538,2.462-3.156,2-1.861,1.023-2.657.846-3.156,0.389-2.725,1.371-3.385.77-3.605-.169-1.184-.2-2.141-0.508-2.267-1.16-1.617.364-2.141-.177-2-1.277l-41.108-1.05a12.156,12.156,0,0,1-.558,3.385h-2.826c-0.22,8.081-.762,15.967-1.693,23.608a4.848,4.848,0,0,1-1.5,2.607l-8.081.05-0.559-.846c-0.948-5.838-1.049-14.385-1.049-23.21l-4.383.16-1.329-1.6-0.161-1.278H252.6v-1.819l-45.364-.431a20.745,20.745,0,0,1,0-7.616l45.017,1.125,0.431-2.6,6.77,0.262c0.431-16.035,1.167-26.392,2.538-25.631l8.14,0.347c1.5,4.95,2.226,13.268,1.9,26.232l2.607-.11c1.108,0.719.786,2.293,0.846,3.655l44.661,1c3.385-5.484,6.9-8.936,10.467-7.616,3.7,0.076,9.308,3.385,15.984,8.309l3.529,0.144,3.156-2.911,0.347-2.877-0.9-6.371-1.244-.169c-2.539-1.447-2.116-5.3-.542-6.135l-0.347-3.25c-0.313-4.89,2.818-8.521,6.973-11.77,1.134-1.692,4.324-2.987,8.572-1.777,1.557-.508,2.843-0.042,3.232,3.554,3.926,2.792,3.875,5.923,3.207,8.462v3.689A8.64,8.64,0,0,1,373.312,206Zm19.716,24.928a6.424,6.424,0,0,1,4.29,1.693,11.388,11.388,0,0,0,.745-4.857l-9.266-.39C391.006,228.521,392.867,229.671,393.028,230.932Zm-169.574,72.45c-0.144-15.231,7.362-25.284,14.013-25.03l7.565,0.609c8.081,3.216,12.312,11.847,13.962,24.218l20.156,0.609c1.692,0.169,3.384,5.28-.3,5.923L259.3,309.2c-0.38,9.011-2.741,16.771-8.631,22.288-0.761.846-14.9,1.32-17.008-.305-5.508-3-9.951-14.063-10.154-24.37l-17.871-.6c-0.1,1.421-.618,2.377-2.437,1.9-0.787,1.607-1.743,1.777-2.86.634-0.846,1.159-1.693,1.075-2.539.059-1.167.9-2.124,0.5-2.792-1.616a2.835,2.835,0,0,1-2.539-1.3h-4.789l-3.3,9.553c0.939,0.635,1.075,2.074.981,3.741l-0.321.507,0.415,0.288,0.448,1.4,0.508,0.288,2.724,3.715-0.22.22,2.124,2.343c1.693,0.728,2.962,1.794,2.607,4.062,0.355,0.846-11.162.5-22,.195v-1.49l0.381-.507,0.093-1.43a11.207,11.207,0,0,1,0-4.155c0.279-3.935,1.167-5.246,2.378-5.2l-0.127-.542,0.583-.363c0.2-4.316,1.244-8.7,1.422-13.048l-42.14-.914a28.575,28.575,0,0,0-1.337,10.323,6.707,6.707,0,0,1,.847,2.132c0.482,0.305.668,0.567,0.567,0.787L134,318.4l-0.068.727a0.482,0.482,0,0,1,.668.127,9.06,9.06,0,0,1,.635,3.486l0.254,0.449,0.093,1.176c0.448,1.066.321,1.692-.313,1.8a1.034,1.034,0,0,1-.288,1.016l0.508,1.751c0.482,1.693.321,2.987-.8,3.681l-12.311-.16a3.513,3.513,0,0,1-1.075-3.876l1.3-3.977a8.025,8.025,0,0,1,1.422-5.39l-0.094-.474,0.923-3.385-1.43-11-3.385-.22c-1.345,3.08-2.606,3.986-3.782,2.539-1.083,1.294-2.133,1.337-3.14-.127-1.032,1.514-1.929.778-2.792-.567-1.481.846-2.107-.415-2.539-2.116L69.4,303.018c-0.161,1.929-.313,3.876-1.134,3.444l-2.978.059L62.622,331.78a0.9,0.9,0,0,1-1.261.846l-7.616-.254c-0.406.195-.618-0.135-0.761-0.635l1.777-27.416-0.381-.127-0.508,7.743a10.831,10.831,0,0,1-2.479.279l-4.366-4.535,0.051-1.879c-0.432-.11-0.567-0.668-0.457-1.574l-45.338-.711c-0.635-1.218-.66-5.483.711-7.564l45.084,0.964,0.2-3.046,7.87,0.254-0.254,3.2h0.44L57.8,270.347a0.8,0.8,0,0,1,1.108-.846l7.455,0.313c1.024,0.567.846,1.591,0.719,2.623L66.015,295.5l3.5,0.2a11.5,11.5,0,0,1,.2,3.384L108,300.1l0.2-.846,0.457-3.453a40.122,40.122,0,0,0,3.2-9.545c-0.161-7.514.583-14.258,2.843-19.749a12.964,12.964,0,0,1,4.011-8.631l1.117-3.842q2.648-14.452,8.732-20.478c0.643-9.307,4.62-11.948,9.545-12.692,4.18-3.444,8.91-6.2,15.282-6.905,2.158-1.024,3.08-3.055,2.437-6.346-4.8-2.725-3.2-10.154-.559-8.174,0.347-2.488-.575-5.4-1.269-8.225,2.793-8.327,19.462-12.642,22.187-4.011,1.853-.127,2.538,2.42,1.472,9.139l-0.406,4.23,0.1,3.961a18.078,18.078,0,0,1-4.417,12.032,18.623,18.623,0,0,1,11.068,9.139c5.711,2.488,7.759,7.616,7.057,14.825a38.818,38.818,0,0,1,4.569,7.92l1.692,9.308a30.281,30.281,0,0,1,2.133,7.413l1.692,6.7,0.575,12.118a71.573,71.573,0,0,1,.914,12.083,17.468,17.468,0,0,1,3.047,6.651ZM118.41,292.839l2.691,6.3,0.355,1.117H123.1c-0.99-7.929-1.71-15.578.186-19.97l0.1-4.366C120.779,281.288,118.647,286.8,118.41,292.839ZM135.723,249.1c-3.893,10.628-6.9,9.062-7.616,12.261,0.423-.762,3.453-1.4,5.39-2.5a22.413,22.413,0,0,1,1.989-6.143A3.782,3.782,0,0,0,135.723,249.1Zm14.368,33.111-3.859.457-6.295,2.081a16.2,16.2,0,0,1-2.183,3.706c0.346,4.164-.847,8.225-2.742,12.388l41.463,1.016a17.7,17.7,0,0,1,.067-8.783l-1.32-.61C170.01,286.179,160.076,284.165,150.091,282.211Zm36.318-21.967c-2.928-4.663-4.494-10.01-5.509-15.629l-2.065-3.647c-1.472.432-2.69,1.692-3.528,4.087a6.772,6.772,0,0,1-3.808,4.519,44.656,44.656,0,0,1-5.238,9.638l-0.237,2.225L168.4,262.5a10.02,10.02,0,0,1,5.517-.787,16.426,16.426,0,0,1,9.308.914l6.109,2.894C189.328,263.823,188.211,262.055,186.409,260.244Zm8.885,28.99-1.117-5.686c-0.517,4.586-1.9,10.382-4.976,18.48l2.539,0.2c-0.127-1.007.643-2.555,2.014-4.485a7.847,7.847,0,0,0,1.692-5.127Z"/>
  <path id="Фигура_3_копия" data-name="Фигура 3 копия" class="cls-2" d="M750.572,331.661l-22.1-.118c-0.431-.322-0.126-1.109.271-1.972l0.059-1.362a9.942,9.942,0,0,1,0-2.953c0.212-4.993,1.067-6.6,2.133-7.015l-0.076-.6,0.677-.618c-0.982-19.157-7.464-26.383-6.347-38.264,0.381-6.084-1.387-10.738-3.6-15.07-1.227-.313-2.04-0.694-2.184-1.168,1.084-9.1-5.407-16.2-7.141-23.871-0.423,8.894-7.337,13.827-5.924,25.623a13.371,13.371,0,0,1-7.615.719,51.312,51.312,0,0,0-5.01,11.186c0.5,14.157-6.244,23.219-6.481,37.1a4.7,4.7,0,0,1,.626,1.845l0.448,0.846-0.431,1.388,0.44,0.11a8.847,8.847,0,0,1,1.252,4.112c0.593,2.217.491,3.14,0,3.385l-0.491,1.278c0.847,2.487,1.117,4.442.212,5.4l-12.963-.177c-1.828-1.837-.847-4.553.38-7.379,0.127-3.1.686-5.077,1.549-6.4,0-2.733.592-3.588,1.227-4.451a227.547,227.547,0,0,1-.457-31.808c0.084-6.008,3.088-12.176,4.578-18.751l-4.832-.922c0.474-9.376,4.654-6.685,5.483-20.258l3.757-26.7a15.232,15.232,0,0,1,4.358-9.934l1.4-4.865c-0.1-1.007.406-1.439,1.438-1.371l0.846-3.385c-0.524-5.178,1.041-10.027.2-16.263l-3.6-15.824a35.357,35.357,0,0,1-2.64-13.429,7.613,7.613,0,0,1-1.388-2.251c-1.557-3.621-3.494-7.708-5.965-12.447-1.887-5.762-3.385-11.745-5.568-16.923a6.416,6.416,0,0,1-2.479-4.426c-2.471-4.967-3.436-11.229-4.1-17.77-1.6.364-2.293-1.049-2.539-3.3l-26.451-.1-0.288,2.894h-3.385c-0.49,6.989-1.15,13.826-1.836,20.655l-0.626.846h-5.923l-0.491-.778,1.108-21.265-0.355,1.4-1.591,5.077-1.988-.127-1.447-4.9-0.068-1.2-0.389-.161,0.127-1.015H592.43c-0.542-1.692-.068-5.754.465-5.83H624.61l0.228-1.819,0.356-.254h5.17l0.262,0.1c0.305-6.863.762-13.7,1.506-20.511l0.618-.643H639l0.364,0.779c0,6.846-.457,13.767-0.846,20.689h3.148l0.1,0.44-0.084,2.479h27.34a2.308,2.308,0,0,1,2.183-.914,1.794,1.794,0,0,1,2.124-.3c1.607-.846,3.232-1.472,4.95-0.685,0.355-1.286.846-1.582,1.514-.939l1.591,0.761c0.846,0.728.559,1.438,0,2.141l67.11,0.415c-1.6-2.539.593-2.75,2.624-3.114,0.676,0.11.778,0.542,0.575,1.151a6.244,6.244,0,0,1,6.659,1.159c0.212-.279,1.566.635,2.539,1.193l21.154,0.2c3.233-17.338,8.462-24.869,13.734-24.674l5.652,0.279c4.18,0.5,6.279,12.261,5.2,23.126l29.5,0.778c1.6,0.423,1.244,5.077-.693,5.923l-29.566-1.218c-1.286,8.2-6.245,24.234-13.175,23.21l-5.5.161c-5.331-1.312-6.473-10.7-5.449-24.328l-20.681-.169c-2.242,11.474-5.229,21.273-10.382,26.113L748.82,123.2a40.139,40.139,0,0,1-10.51,23.168,46.7,46.7,0,0,1-2.03,12.693,35.911,35.911,0,0,0-.847,7.421c-0.194,2.352-1.548,4.3-2.1,6.423l-2.056,14.867a46.529,46.529,0,0,1-.153,6.964l0.669,3.148,0.457-.322,0.406,0.5,1.083,5.187c4.637,6.457,7.091,30.649,9.2,57.972a23,23,0,0,1-5.162.948v5.711c6.144,12.879,3.385,29.168,2.006,44.907a4.536,4.536,0,0,1,2.344,5.415c0.846,0.474,1.032.847,0.846,1.253l0.541,1.261a12.924,12.924,0,0,1,2.869,4.061l-0.3.161a4.7,4.7,0,0,0,1.8,2.361A4.137,4.137,0,0,1,750.614,331ZM721.641,138.733l2.42-1.032c2.065-2.285,4.383-4.1,7.4-4.629l1.075-1.193c1.743-7.023,4.933-12.625,10.069-16.4,1.591-6,5.526-12.54,9.875-19.217a1.693,1.693,0,0,1-2.175-.652c-0.457-.567-0.474-1.751-1.235-2.352l-69.387-.7a8.442,8.442,0,0,1-2.141,2.369c3.91,6.347,7.371,12.981,8.175,20.859,3.951,2.25,7.564,6.769,10.154,17.583a37.42,37.42,0,0,1,10.848,5.077,12.014,12.014,0,0,0,1.1-5.923,8.974,8.974,0,0,1-.55-4.426c-1.642-.626-3.436-0.981-2.886-5.474,0.2-1.007.635-1.693,1.76-1.43-0.846-4.519-1.151-8.792,2.285-11.229l-1.278.093a24.953,24.953,0,0,0,4.485-2.936c1.8-2.8,9.849-6.99,12.989.584,3.943,1.768,5.077,5.813,1.4,13.538,0.381,1.177,2.158,0-.609,6.474-0.575,3.909-1.912,6.405-4.163,7.167-0.508,1.87-.406,3.19.381,3.841v0.009Z"/>

</svg>
