<?xml version="1.0" encoding="utf-8"?>
<!-- Generator: Adobe Illustrator 19.2.1, SVG Export Plug-In . SVG Version: 6.00 Build 0)  -->
<svg version="1.1" id="Слой_1" xmlns="http://www.w3.org/2000/svg" xmlns:xlink="http://www.w3.org/1999/xlink" x="0px" y="0px"
	 width="42px" height="84px" viewBox="0 0 42 84" style="enable-background:new 0 0 42 84;" xml:space="preserve">
<style type="text/css">
	.st0{fill:#040619;}
	.st1{fill:#FCFCFC;}
</style>
<path class="st0" d="M24,21c0,0.2-0.1,0.5-0.2,0.7l-4.1,4.4c-0.3,0.4-0.8,0.6-1.3,0.3c0,0-0.1-0.1-0.1-0.1c-0.4-0.4-0.5-1-0.2-1.5
	l3.6-3.8l-3.6-3.8c-0.3-0.5-0.2-1.1,0.2-1.5c0.4-0.3,1-0.3,1.3,0.1c0,0,0,0.1,0.1,0.1l4.1,4.4C23.9,20.6,24,20.8,24,21z"/>
<path class="st1" d="M24,63c0,0.2-0.1,0.5-0.2,0.7l-4.1,4.4c-0.3,0.4-0.8,0.6-1.3,0.3c0,0-0.1-0.1-0.1-0.1c-0.4-0.4-0.5-1-0.2-1.5
	l3.6-3.8l-3.6-3.8c-0.3-0.5-0.2-1.1,0.2-1.5c0.4-0.3,1-0.3,1.3,0.1c0,0,0,0.1,0.1,0.1l4.1,4.4C23.9,62.6,24,62.8,24,63z"/>
</svg>
