<svg xmlns="http://www.w3.org/2000/svg" width="50" height="41.9" viewBox="0 0 50 41.9">
  <defs>
    <style>
      .cls-1 {
        fill: #a1a1a1;
        fill-rule: evenodd;
      }
    </style>
  </defs>
  <path class="cls-1" d="M440.339,10595.7l-1.448,13.8a2.025,2.025,0,0,1-1.975,1.8H436.7a2.142,2.142,0,0,1-1.766-2.3l1.448-13.7a19.851,19.851,0,0,0-4.881-15.3,19.363,19.363,0,0,0-28.946,0,19.852,19.852,0,0,0-4.882,15.3l1.449,13.7a2.143,2.143,0,0,1-1.766,2.3,2.015,2.015,0,0,1-2.188-1.8l-1.448-13.8a23.98,23.98,0,0,1,5.877-18.4,23.179,23.179,0,0,1,34.861,0A23.977,23.977,0,0,1,440.339,10595.7Zm-34.271-12a1.931,1.931,0,0,1,1.734-1.1h0.009a2.37,2.37,0,0,1,1.735,1.1l7.485,13.9,7.486-13.9a2.374,2.374,0,0,1,1.735-1.1h0.009a1.931,1.931,0,0,1,1.735,1.1l0.636,1.1a20.461,20.461,0,0,1-.706,21,1.949,1.949,0,0,1-1.666.9,2.127,2.127,0,0,1-1.087-.3,2.048,2.048,0,0,1-.575-2.8,16.381,16.381,0,0,0,1.582-14.6l-7.4,13.7a2.046,2.046,0,0,1-3.487,0l-7.407-13.7a16.381,16.381,0,0,0,1.584,14.6,2.049,2.049,0,0,1-.575,2.8,2.013,2.013,0,0,1-2.753-.6,20.463,20.463,0,0,1-.708-21Z" transform="translate(-392.031 -10569.4)"/>
</svg>
