<svg xmlns="http://www.w3.org/2000/svg" width="50" height="40" viewBox="0 0 50 40">
  <defs>
    <style>
      .cls-1 {
        fill: #8c8c8c;
        fill-rule: evenodd;
      }
    </style>
  </defs>
  <path class="cls-1" d="M436.656,11042.8H400.918a6.083,6.083,0,0,1-6.1-6.1v-27.8a6.062,6.062,0,0,1,6.1-6h35.738a6.062,6.062,0,0,1,6.1,6v27.8A6.083,6.083,0,0,1,436.656,11042.8Zm-35.738-4h35.738a2.043,2.043,0,0,0,2.032-2.1v-22.9l-19.9,12.8-19.9-12.8v22.9A2.043,2.043,0,0,0,400.918,11038.8Zm35.738-31.9H400.918a2.021,2.021,0,0,0-2.033,2v0.1l19.9,12.8,19.9-12.8v-0.1A2.021,2.021,0,0,0,436.656,11006.9Z" transform="translate(-393.781 -11002.8)"/>
</svg>
