<svg xmlns="http://www.w3.org/2000/svg" width="50" height="51.8" viewBox="0 0 50 51.8">
  <defs>
    <style>
      .cls-1 {
        fill: #8c8c8c;
        fill-rule: evenodd;
      }
    </style>
  </defs>
  <path class="cls-1" d="M424.428,10873.5a12.857,12.857,0,0,1-4.706-.9,13.138,13.138,0,0,1-7.374-7l-11.362-25.2a13.239,13.239,0,0,1,6.649-17.5l1.628-.7a6.093,6.093,0,0,1,4.773-.2,6.331,6.331,0,0,1,3.475,3.3l2.363,5.2a6.281,6.281,0,0,1-3.134,8.3,2.558,2.558,0,0,0-1.478,1.6,2.663,2.663,0,0,0,.064,2.1l0.732,1.6h0l4.218,9.4a2.773,2.773,0,0,0,3.723,1.4,6.085,6.085,0,0,1,4.773-.1,6.012,6.012,0,0,1,3.477,3.3l2.362,5.2a6.347,6.347,0,0,1-3.133,8.3l-1.629.7A12.907,12.907,0,0,1,424.428,10873.5Zm-12.607-47.9a1.549,1.549,0,0,0-.93.2l-1.628.7a9.242,9.242,0,0,0-4.653,12.2l11.362,25.3a9.257,9.257,0,0,0,12.25,4.7l1.627-.8a2.25,2.25,0,0,0,1.138-3l-2.362-5.2a2.085,2.085,0,0,0-1.263-1.2,2.581,2.581,0,0,0-1.734,0,6.669,6.669,0,0,1-8.976-3.4l-4.95-11a6.758,6.758,0,0,1-.155-5.2,6.46,6.46,0,0,1,3.564-3.7,2.282,2.282,0,0,0,1.139-3l-2.363-5.3a2.4,2.4,0,0,0-1.261-1.2A2.2,2.2,0,0,0,411.821,10825.6Z" transform="translate(-392.516 -10821.6)"/>
</svg>
