<svg xmlns="http://www.w3.org/2000/svg" width="64" height="64" viewBox="0 0 64 64">
  <metadata><?xpacket begin="﻿" id="W5M0MpCehiHzreSzNTczkc9d"?>
<x:xmpmeta xmlns:x="adobe:ns:meta/" x:xmptk="Adobe XMP Core 5.6-c138 79.159824, 2016/09/14-01:09:01        ">
   <rdf:RDF xmlns:rdf="http://www.w3.org/1999/02/22-rdf-syntax-ns#">
      <rdf:Description rdf:about=""/>
   </rdf:RDF>
</x:xmpmeta>
                                                                                                    
                                                                                                    
                                                                                                    
                                                                                                    
                                                                                                    
                                                                                                    
                                                                                                    
                                                                                                    
                                                                                                    
                                                                                                    
                                                                                                    
                                                                                                    
                                                                                                    
                                                                                                    
                                                                                                    
                                                                                                    
                                                                                                    
                                                                                                    
                                                                                                    
                                                                                                    
                           
<?xpacket end="w"?></metadata>
<defs>
    <style>
      .cls-1 {
        fill: #b7b7b7;
        fill-rule: evenodd;
      }
    </style>
  </defs>
  <path class="cls-1" d="M575.257,1973.72H560.99a5.444,5.444,0,0,1-10.341,0h-2.912a1.745,1.745,0,0,1,0-3.49h2.912a5.444,5.444,0,0,1,10.341,0h14.267A1.745,1.745,0,0,1,575.257,1973.72Zm-19.438-3.74a2,2,0,1,0,1.994,2A2,2,0,0,0,555.819,1969.98Zm19.438-6.78h-2.911a5.444,5.444,0,0,1-10.341,0H547.737a1.745,1.745,0,0,1,0-3.49h14.268a5.444,5.444,0,0,1,10.341,0h2.911A1.745,1.745,0,0,1,575.257,1963.2Zm-8.081-3.74a2,2,0,1,0,1.994,2A2,2,0,0,0,567.176,1959.46Zm-19.439,21.29h14.268a5.444,5.444,0,0,1,10.341,0h2.911a1.745,1.745,0,0,1,0,3.49h-2.91a5.445,5.445,0,0,1-10.342,0H547.737A1.745,1.745,0,0,1,547.737,1980.75Zm19.439,3.74a2,2,0,1,0-2-1.99A1.992,1.992,0,0,0,567.176,1984.49Z" transform="translate(-529.5 -1939.97)"/>
</svg>
