<?xml version="1.0" encoding="utf-8"?>
<!-- Generator: Adobe Illustrator 19.2.1, SVG Export Plug-In . SVG Version: 6.00 Build 0)  -->
<svg version="1.1" id="Слой_1" xmlns="http://www.w3.org/2000/svg" xmlns:xlink="http://www.w3.org/1999/xlink" x="0px" y="0px"
	 width="18px" height="30px" viewBox="0 0 18 30" style="enable-background:new 0 0 18 30;" xml:space="preserve">
<style type="text/css">
	.st0{fill:#006DB8;}
</style>
<path class="st0" d="M17.3,10.5l-1.2,1.8l0,2.2c0,0.4-0.3,0.8-0.7,0.9L14,15.9v11.5c0,0.4-0.2,0.8-0.6,0.9c-0.4,0.2-0.8,0.1-1.1-0.2
	L9,24.8l-3.2,3.3c-0.3,0.3-0.7,0.4-1.1,0.2c-0.4-0.2-0.6-0.5-0.6-0.9V15.9l-1.5-0.5C2.2,15.2,2,14.9,2,14.4l0-2.2l-1.2-1.8
	c-0.2-0.3-0.2-0.8,0-1.1l1.2-1.8l0-2.2c0-0.4,0.3-0.8,0.7-0.9l2-0.7L5.9,2C6.2,1.6,6.6,1.5,7,1.6l2,0.6l2-0.6c0.4-0.1,0.8,0,1.1,0.4
	l1.3,1.7l2,0.7C15.8,4.6,16,4.9,16,5.4l0,2.2l1.2,1.8C17.5,9.7,17.5,10.1,17.3,10.5z M8.3,22.7c0.4-0.4,1-0.4,1.4,0c0,0,0,0,0,0
	L12,25v-7.2c-0.2,0.2-0.4,0.3-0.7,0.4c-0.1,0-0.2,0-0.3,0l-2-0.6l-2,0.6c-0.3,0.1-0.6,0-0.9-0.2v7L8.3,22.7z M14.3,8.4
	c-0.1-0.2-0.2-0.4-0.2-0.5l0-1.8l-1.6-0.6c-0.2-0.1-0.3-0.2-0.5-0.3l-1-1.4L9.3,4.3c-0.2,0.1-0.4,0.1-0.6,0L7.1,3.8L6,5.2
	C5.9,5.3,5.7,5.5,5.6,5.5L3.9,6.1l0,1.8c0,0.2-0.1,0.4-0.2,0.5l-1,1.5l1,1.5c0.1,0.2,0.2,0.4,0.2,0.6l0,1.8l1.6,0.6
	c0.2,0.1,0.3,0.2,0.5,0.3l1,1.4l1.7-0.5c0.2-0.1,0.4-0.1,0.6,0l1.7,0.5l1-1.4c0.1-0.2,0.3-0.3,0.5-0.3l1.6-0.6l0-1.8
	c0-0.2,0.1-0.4,0.2-0.6l1-1.5L14.3,8.4z M9.3,12.1c-0.4,0.4-1,0.4-1.4,0c0,0,0,0,0,0l-2-2.1c-0.4-0.4-0.4-1,0-1.4
	c0.4-0.4,1-0.4,1.3,0c0,0,0,0,0,0l1.3,1.4l2.1-2.2c0.4-0.4,1-0.4,1.4,0c0,0,0,0,0,0c0.4,0.4,0.4,1,0,1.4L9.3,12.1z"/>
</svg>
