<svg xmlns="http://www.w3.org/2000/svg" width="30" height="30" viewBox="0 0 30 30">
  <metadata><?xpacket begin="﻿" id="W5M0MpCehiHzreSzNTczkc9d"?>
<x:xmpmeta xmlns:x="adobe:ns:meta/" x:xmptk="Adobe XMP Core 5.6-c138 79.159824, 2016/09/14-01:09:01        ">
   <rdf:RDF xmlns:rdf="http://www.w3.org/1999/02/22-rdf-syntax-ns#">
      <rdf:Description rdf:about=""/>
   </rdf:RDF>
</x:xmpmeta>
                                                                                                    
                                                                                                    
                                                                                                    
                                                                                                    
                                                                                                    
                                                                                                    
                                                                                                    
                                                                                                    
                                                                                                    
                                                                                                    
                                                                                                    
                                                                                                    
                                                                                                    
                                                                                                    
                                                                                                    
                                                                                                    
                                                                                                    
                                                                                                    
                                                                                                    
                                                                                                    
                           
<?xpacket end="w"?></metadata>
<defs>
    <style>
      .cls-1 {
        fill: #bfbfbf;
        fill-rule: evenodd;
      }
    </style>
  </defs>
  <path class="cls-1" d="M1359,5589h-22a3.009,3.009,0,0,1-3-3v-19a3,3,0,0,1,3-3h22a3,3,0,0,1,3,3v19A3.009,3.009,0,0,1,1359,5589Zm1-22a1,1,0,0,0-1-1h-22a1,1,0,0,0-1,1v19a1,1,0,0,0,1,1h22a1,1,0,0,0,1-1v-19Zm-4.3,12.15a1.584,1.584,0,0,0,.69-0.15,3.361,3.361,0,0,0,.67-0.41l0.73,0.94a3.237,3.237,0,0,1-.95.64,3.022,3.022,0,0,1-1.22.25,3.211,3.211,0,0,1-1.67-.42,2.892,2.892,0,0,1-1.11-1.25,4.6,4.6,0,0,1-.39-1.98,4.351,4.351,0,0,1,.4-1.95,2.97,2.97,0,0,1,1.12-1.25,3.452,3.452,0,0,1,2.78-.23,3.384,3.384,0,0,1,.96.57l-0.78.93a2.626,2.626,0,0,0-.61-0.36,1.7,1.7,0,0,0-.64-0.12,1.262,1.262,0,0,0-1.11.59,3.252,3.252,0,0,0-.4,1.82,3.162,3.162,0,0,0,.4,1.79A1.306,1.306,0,0,0,1355.7,5579.15Zm-5.54-1.61c-0.03-.65-0.05-1.22-0.05-1.73,0-.39.01-0.75,0.03-1.1l-1.07,4.81h-1.55l-1.14-4.81c0.04,0.58.06,1.13,0.06,1.64,0,0.39-.01.79-0.03,1.21l-0.12,2.69h-1.6l0.52-6.93h2.07l1.04,4.7,0.97-4.7h2.08l0.52,6.93h-1.61Zm-7.53,2.71-1.49-3.01h-0.72v3.01h-1.64v-6.93h1.64v2.72h0.76l1.44-2.72h1.61l-1.71,3.14,1.9,3.79h-1.79Z" transform="translate(-1333 -5561.5)"/>
</svg>
