<?xml version="1.0" encoding="utf-8"?>
<!-- Generator: Adobe Illustrator 19.2.1, SVG Export Plug-In . SVG Version: 6.00 Build 0)  -->
<svg version="1.1" id="Слой_1" xmlns="http://www.w3.org/2000/svg" xmlns:xlink="http://www.w3.org/1999/xlink" x="0px" y="0px"
	 width="24px" height="30px" viewBox="0 0 24 30" style="enable-background:new 0 0 24 30;" xml:space="preserve">
<style type="text/css">
	.st0{fill:#006DB8;}
</style>
<path class="st0" d="M23.3,9.9c-0.3,2.2-2.2,3.8-4.4,3.8c-0.1,0-0.2,0-0.3,0c-0.4,3-2.7,5.4-5.6,5.9V25h2.5c0.6,0,1,0.5,1,1
	c0,0.5-0.5,1-1,1H8.5c-0.6,0-1-0.5-1-1c0-0.5,0.5-1,1-1H11v-5.5c-3-0.5-5.3-2.9-5.6-5.9c-0.1,0-0.2,0-0.3,0c-2.2,0-4-1.6-4.4-3.8
	C0.5,8.5,0.8,7.1,1.7,6c0.7-0.9,1.7-1.4,2.8-1.6l0-0.3c0-0.3,0.1-0.6,0.3-0.8C4.9,3.1,5.2,3,5.5,3h13.1c0.3,0,0.5,0.1,0.7,0.3
	c0.2,0.2,0.3,0.5,0.3,0.8l0,0.3c1.1,0.2,2.1,0.7,2.8,1.6C23.2,7.1,23.5,8.5,23.3,9.9z M4.7,6.5C4.1,6.6,3.6,6.9,3.2,7.3
	C2.7,8,2.5,8.7,2.7,9.5c0.2,1.2,1.2,2.1,2.4,2.1h0L4.7,6.5z M6.6,5.1l0.7,8c0.1,2.6,2.3,4.6,4.9,4.5c2.5-0.1,4.4-2.1,4.5-4.5l0.7-8
	H6.6z M20.8,7.3c-0.4-0.5-0.9-0.8-1.5-0.9l-0.5,5.2h0c1.2,0,2.3-0.9,2.4-2.1C21.5,8.7,21.3,8,20.8,7.3L20.8,7.3z"/>
</svg>
